Library\Bee\artifacts\mvdfrm\UnityEngine.AccessibilityModule.dll_D3CD5804E7EEA774.mvfrm
Library\Bee\artifacts\mvdfrm\UnityEngine.AIModule.dll_A355E0EC742E0EC6.mvfrm
Library\Bee\artifacts\mvdfrm\UnityEngine.AndroidJNIModule.dll_6A0AADAC3CBE3784.mvfrm
Library\Bee\artifacts\mvdfrm\UnityEngine.AnimationModule.dll_2CAEC6BB3F7E891A.mvfrm
Library\Bee\artifacts\mvdfrm\UnityEngine.AssetBundleModule.dll_3F9D6682457E2788.mvfrm
Library\Bee\artifacts\mvdfrm\UnityEngine.AudioModule.dll_803181E6CCF1138C.mvfrm
Library\Bee\artifacts\mvdfrm\UnityEngine.ClothModule.dll_E719DEE1A70DF270.mvfrm
Library\Bee\artifacts\mvdfrm\UnityEngine.ContentLoadModule.dll_D8B3BFC31400CF75.mvfrm
Library\Bee\artifacts\mvdfrm\UnityEngine.CoreModule.dll_AFA58FEEA7020DDD.mvfrm
Library\Bee\artifacts\mvdfrm\UnityEngine.CrashReportingModule.dll_A39C8B37E7E76D95.mvfrm
Library\Bee\artifacts\mvdfrm\UnityEngine.DirectorModule.dll_EDB829012BF86B3A.mvfrm
Library\Bee\artifacts\mvdfrm\UnityEngine.dll_83C3A93C62B55528.mvfrm
Library\Bee\artifacts\mvdfrm\UnityEngine.DSPGraphModule.dll_F3098A6A9E593C5B.mvfrm
Library\Bee\artifacts\mvdfrm\UnityEngine.GameCenterModule.dll_9457F7C702FF2875.mvfrm
Library\Bee\artifacts\mvdfrm\UnityEngine.GIModule.dll_3B9229FA0FDCF6E0.mvfrm
Library\Bee\artifacts\mvdfrm\UnityEngine.GridModule.dll_8D16ABDCBF56A3D4.mvfrm
Library\Bee\artifacts\mvdfrm\UnityEngine.HotReloadModule.dll_ADF784C11AB1A49C.mvfrm
Library\Bee\artifacts\mvdfrm\UnityEngine.ImageConversionModule.dll_9A035EBC63540D27.mvfrm
Library\Bee\artifacts\mvdfrm\UnityEngine.IMGUIModule.dll_B891214D9322A76D.mvfrm
Library\Bee\artifacts\mvdfrm\UnityEngine.InputLegacyModule.dll_D0E281A0DD6FDD79.mvfrm
Library\Bee\artifacts\mvdfrm\UnityEngine.InputModule.dll_E6A7499743293830.mvfrm
Library\Bee\artifacts\mvdfrm\UnityEngine.JSONSerializeModule.dll_33E4E140E72A07FE.mvfrm
Library\Bee\artifacts\mvdfrm\UnityEngine.LocalizationModule.dll_34658C24A6347027.mvfrm
Library\Bee\artifacts\mvdfrm\UnityEngine.ParticleSystemModule.dll_F6AED48455F8F923.mvfrm
Library\Bee\artifacts\mvdfrm\UnityEngine.PerformanceReportingModule.dll_A6DFB9D52E34BF9C.mvfrm
Library\Bee\artifacts\mvdfrm\UnityEngine.Physics2DModule.dll_7954B6ABE07B80AF.mvfrm
Library\Bee\artifacts\mvdfrm\UnityEngine.PhysicsModule.dll_71346AAA1C17E7DD.mvfrm
Library\Bee\artifacts\mvdfrm\UnityEngine.ProfilerModule.dll_1FFE6237C551F247.mvfrm
Library\Bee\artifacts\mvdfrm\UnityEngine.PropertiesModule.dll_C193370575EA8CB1.mvfrm
Library\Bee\artifacts\mvdfrm\UnityEngine.RuntimeInitializeOnLoadManagerInitializerModule.dll_3078506354FCCF78.mvfrm
Library\Bee\artifacts\mvdfrm\UnityEngine.ScreenCaptureModule.dll_4DCC8EC5FB963460.mvfrm
Library\Bee\artifacts\mvdfrm\UnityEngine.SharedInternalsModule.dll_1E149D91DA820877.mvfrm
Library\Bee\artifacts\mvdfrm\UnityEngine.SpriteMaskModule.dll_7D846A57246EBDEF.mvfrm
Library\Bee\artifacts\mvdfrm\UnityEngine.SpriteShapeModule.dll_58FE93DCFB205F92.mvfrm
Library\Bee\artifacts\mvdfrm\UnityEngine.StreamingModule.dll_E143B40B8F064058.mvfrm
Library\Bee\artifacts\mvdfrm\UnityEngine.SubstanceModule.dll_BDEEC854DA593E66.mvfrm
Library\Bee\artifacts\mvdfrm\UnityEngine.SubsystemsModule.dll_E831D0B8F2B6A602.mvfrm
Library\Bee\artifacts\mvdfrm\UnityEngine.TerrainModule.dll_8B7AE618F1D630CB.mvfrm
Library\Bee\artifacts\mvdfrm\UnityEngine.TerrainPhysicsModule.dll_F7297D576F3BF3B0.mvfrm
Library\Bee\artifacts\mvdfrm\UnityEngine.TextCoreFontEngineModule.dll_A6B6132CEC4542BB.mvfrm
Library\Bee\artifacts\mvdfrm\UnityEngine.TextCoreTextEngineModule.dll_EE9E499E7BC8FBD9.mvfrm
Library\Bee\artifacts\mvdfrm\UnityEngine.TextRenderingModule.dll_770C00D0B2CDB455.mvfrm
Library\Bee\artifacts\mvdfrm\UnityEngine.TilemapModule.dll_2A774D9A099311D4.mvfrm
Library\Bee\artifacts\mvdfrm\UnityEngine.TLSModule.dll_FB3D335636FD7971.mvfrm
Library\Bee\artifacts\mvdfrm\UnityEngine.UIElementsModule.dll_EC703220F5E2E1F9.mvfrm
Library\Bee\artifacts\mvdfrm\UnityEngine.UIModule.dll_9EC97F19D0751472.mvfrm
Library\Bee\artifacts\mvdfrm\UnityEngine.UmbraModule.dll_FB062DFF5A17BEFF.mvfrm
Library\Bee\artifacts\mvdfrm\UnityEngine.UnityAnalyticsCommonModule.dll_421E7719481D5DFA.mvfrm
Library\Bee\artifacts\mvdfrm\UnityEngine.UnityAnalyticsModule.dll_164E454E02204B1F.mvfrm
Library\Bee\artifacts\mvdfrm\UnityEngine.UnityConnectModule.dll_63DBD0CB57B8AB13.mvfrm
Library\Bee\artifacts\mvdfrm\UnityEngine.UnityCurlModule.dll_5FCB67ECAF927B07.mvfrm
Library\Bee\artifacts\mvdfrm\UnityEngine.UnityTestProtocolModule.dll_31FE4D775C4512F5.mvfrm
Library\Bee\artifacts\mvdfrm\UnityEngine.UnityWebRequestAssetBundleModule.dll_88A15D04DA052D30.mvfrm
Library\Bee\artifacts\mvdfrm\UnityEngine.UnityWebRequestAudioModule.dll_1EDC0DB3B49F8A34.mvfrm
Library\Bee\artifacts\mvdfrm\UnityEngine.UnityWebRequestModule.dll_ABA266666E48A7A6.mvfrm
Library\Bee\artifacts\mvdfrm\UnityEngine.UnityWebRequestTextureModule.dll_EEBD6C2F47A42E89.mvfrm
Library\Bee\artifacts\mvdfrm\UnityEngine.UnityWebRequestWWWModule.dll_B9608EFA6B88B845.mvfrm
Library\Bee\artifacts\mvdfrm\UnityEngine.VehiclesModule.dll_657B2280A6223AD5.mvfrm
Library\Bee\artifacts\mvdfrm\UnityEngine.VFXModule.dll_7C1BCBC50D6AE2DE.mvfrm
Library\Bee\artifacts\mvdfrm\UnityEngine.VideoModule.dll_A53B06518F832F31.mvfrm
Library\Bee\artifacts\mvdfrm\UnityEngine.VRModule.dll_F19BA59F722F99EA.mvfrm
Library\Bee\artifacts\mvdfrm\UnityEngine.WebGLModule.dll_1F9DF6F5BEC7254F.mvfrm
Library\Bee\artifacts\mvdfrm\UnityEngine.WindModule.dll_25F46B1738388C46.mvfrm
Library\Bee\artifacts\mvdfrm\UnityEngine.XRModule.dll_245A68A3FB69E748.mvfrm