Library\Bee\artifacts\mvdfrm\Unity.2D.Tilemap.Editor.ref.dll_436C0E2610862891.mvfrm
Library\Bee\artifacts\mvdfrm\Unity.2D.Tilemap.Extras.Editor.ref.dll_8DA00406C36CC6AA.mvfrm
Library\Bee\artifacts\mvdfrm\Unity.2D.Tilemap.Extras.ref.dll_371E356D6F5B6577.mvfrm
Library\Bee\artifacts\mvdfrm\Unity.Burst.Editor.ref.dll_E2F92DAB6C167CC9.mvfrm
Library\Bee\artifacts\mvdfrm\Unity.Burst.ref.dll_F30DFA20C0DD1968.mvfrm
Library\Bee\artifacts\mvdfrm\Unity.Mathematics.Editor.ref.dll_9A20CFD48BC11F43.mvfrm
Library\Bee\artifacts\mvdfrm\Unity.Mathematics.ref.dll_E8EFDB1B8D5C174E.mvfrm
Library\Bee\artifacts\mvdfrm\Unity.PlasticSCM.Editor.ref.dll_257AEB342BE77856.mvfrm
Library\Bee\artifacts\mvdfrm\Unity.Postprocessing.Editor.ref.dll_1C9CD17610FFA3F0.mvfrm
Library\Bee\artifacts\mvdfrm\Unity.Postprocessing.Runtime.ref.dll_3152B6A9836FBF3B.mvfrm
Library\Bee\artifacts\mvdfrm\Unity.Recorder.Base.ref.dll_EF7F95D386759C59.mvfrm
Library\Bee\artifacts\mvdfrm\Unity.Recorder.Editor.ref.dll_1902ED81DEF11A55.mvfrm
Library\Bee\artifacts\mvdfrm\Unity.Recorder.ref.dll_173FFB8F7F73131C.mvfrm
Library\Bee\artifacts\mvdfrm\Unity.RenderPipeline.Universal.ShaderLibrary.ref.dll_5436F99F8BDCED8B.mvfrm
Library\Bee\artifacts\mvdfrm\Unity.RenderPipelines.Core.Editor.ref.dll_46EB9B6930B27991.mvfrm
Library\Bee\artifacts\mvdfrm\Unity.RenderPipelines.Core.Runtime.ref.dll_CE6A42C97D96EB0A.mvfrm
Library\Bee\artifacts\mvdfrm\Unity.RenderPipelines.Core.ShaderLibrary.ref.dll_7F2C410A434F5518.mvfrm
Library\Bee\artifacts\mvdfrm\Unity.RenderPipelines.ShaderGraph.ShaderGraphLibrary.ref.dll_1A2083B43FB0BF18.mvfrm
Library\Bee\artifacts\mvdfrm\Unity.RenderPipelines.Universal.Editor.ref.dll_0FF7AC68384616B1.mvfrm
Library\Bee\artifacts\mvdfrm\Unity.RenderPipelines.Universal.Runtime.ref.dll_5400A10AF7CC6BEA.mvfrm
Library\Bee\artifacts\mvdfrm\Unity.RenderPipelines.Universal.Shaders.ref.dll_9468B054363B0720.mvfrm
Library\Bee\artifacts\mvdfrm\Unity.Rider.Editor.ref.dll_9B5591808ABA37AF.mvfrm
Library\Bee\artifacts\mvdfrm\Unity.Searcher.Editor.ref.dll_12B7E1785E41BE0E.mvfrm
Library\Bee\artifacts\mvdfrm\Unity.ShaderGraph.Editor.ref.dll_0F50152946DB09D0.mvfrm
Library\Bee\artifacts\mvdfrm\Unity.TextMeshPro.Editor.ref.dll_159E061D77A10B86.mvfrm
Library\Bee\artifacts\mvdfrm\Unity.TextMeshPro.ref.dll_84A4293DBDD182DB.mvfrm
Library\Bee\artifacts\mvdfrm\Unity.Timeline.Editor.ref.dll_0D3D3C0B73557612.mvfrm
Library\Bee\artifacts\mvdfrm\Unity.Timeline.ref.dll_621CDDF9C514DF8F.mvfrm
Library\Bee\artifacts\mvdfrm\Unity.VSCode.Editor.ref.dll_3628369EB48E4C19.mvfrm
Library\Bee\artifacts\mvdfrm\Unity.VisualEffectGraph.Editor.ref.dll_40E84D5AB45D5BAC.mvfrm
Library\Bee\artifacts\mvdfrm\Unity.VisualEffectGraph.Runtime.ref.dll_0736BB02CDA4FDBF.mvfrm
Library\Bee\artifacts\mvdfrm\Unity.VisualStudio.Editor.ref.dll_3A975DBA53ABA4AD.mvfrm
Library\Bee\artifacts\mvdfrm\UnityEditor.UI.ref.dll_4C98D3F7040CD4F5.mvfrm
Library\Bee\artifacts\mvdfrm\UnityEngine.UI.ref.dll_08FEAA520A2EFD60.mvfrm
Library\Bee\artifacts\mvdfrm\UnityEditor.CoreModule.dll_826F5E410A69EDC0.mvfrm
Library\Bee\artifacts\mvdfrm\UnityEditor.DeviceSimulatorModule.dll_26D72C9BD53B0C01.mvfrm
Library\Bee\artifacts\mvdfrm\UnityEditor.DiagnosticsModule.dll_31154C165A8AD60F.mvfrm
Library\Bee\artifacts\mvdfrm\UnityEditor.dll_59F08A83483F4FD5.mvfrm
Library\Bee\artifacts\mvdfrm\UnityEditor.EditorToolbarModule.dll_E9DAC7CC058E43B1.mvfrm
Library\Bee\artifacts\mvdfrm\UnityEditor.GraphViewModule.dll_B4DF04D440074E06.mvfrm
Library\Bee\artifacts\mvdfrm\UnityEditor.PresetsUIModule.dll_70453DB6425FA60B.mvfrm
Library\Bee\artifacts\mvdfrm\UnityEditor.QuickSearchModule.dll_BC24CD23B361D268.mvfrm
Library\Bee\artifacts\mvdfrm\UnityEditor.SceneTemplateModule.dll_0D7A388A047AEDE9.mvfrm
Library\Bee\artifacts\mvdfrm\UnityEditor.SceneViewModule.dll_F38EE7DC352A1B14.mvfrm
Library\Bee\artifacts\mvdfrm\UnityEditor.TextCoreFontEngineModule.dll_2434AD973CCDC73E.mvfrm
Library\Bee\artifacts\mvdfrm\UnityEditor.TextCoreTextEngineModule.dll_6C1CE408CC51805C.mvfrm
Library\Bee\artifacts\mvdfrm\UnityEditor.UIBuilderModule.dll_0967B1F0B2BFC73A.mvfrm
Library\Bee\artifacts\mvdfrm\UnityEditor.UIElementsModule.dll_1676480529B4E4FC.mvfrm
Library\Bee\artifacts\mvdfrm\UnityEditor.UIElementsSamplesModule.dll_CE020C1CCABA2031.mvfrm
Library\Bee\artifacts\mvdfrm\UnityEditor.UnityConnectModule.dll_622CBEFF70E57C76.mvfrm
Library\Bee\artifacts\mvdfrm\UnityEngine.AccessibilityModule.dll_401FA42104F11586.mvfrm
Library\Bee\artifacts\mvdfrm\UnityEngine.AIModule.dll_6CEECA653C278414.mvfrm
Library\Bee\artifacts\mvdfrm\UnityEngine.AndroidJNIModule.dll_94BF30D872D453D2.mvfrm
Library\Bee\artifacts\mvdfrm\UnityEngine.AnimationModule.dll_836480FD1A6422AC.mvfrm
Library\Bee\artifacts\mvdfrm\UnityEngine.ARModule.dll_26618F689944E2DD.mvfrm
Library\Bee\artifacts\mvdfrm\UnityEngine.AssetBundleModule.dll_000E001515C8875A.mvfrm
Library\Bee\artifacts\mvdfrm\UnityEngine.AudioModule.dll_19CE24CFE5C2F89E.mvfrm
Library\Bee\artifacts\mvdfrm\UnityEngine.ClothModule.dll_80B681CABFDFD782.mvfrm
Library\Bee\artifacts\mvdfrm\UnityEngine.ClusterInputModule.dll_E1C93415226D4F3C.mvfrm
Library\Bee\artifacts\mvdfrm\UnityEngine.ClusterRendererModule.dll_2C83EF0D44F61985.mvfrm
Library\Bee\artifacts\mvdfrm\UnityEngine.ContentLoadModule.dll_99245955E44B2F47.mvfrm
Library\Bee\artifacts\mvdfrm\UnityEngine.CoreModule.dll_A5903193B26F58EB.mvfrm
Library\Bee\artifacts\mvdfrm\UnityEngine.CrashReportingModule.dll_B6BA3F72276F2D63.mvfrm
Library\Bee\artifacts\mvdfrm\UnityEngine.DirectorModule.dll_77F0B814324D09C8.mvfrm
Library\Bee\artifacts\mvdfrm\UnityEngine.dll_8C94D15BA6B2DCBA.mvfrm
Library\Bee\artifacts\mvdfrm\UnityEngine.DSPGraphModule.dll_7D42197DA4ADDAE9.mvfrm
Library\Bee\artifacts\mvdfrm\UnityEngine.GameCenterModule.dll_BF0C7AF3391544C3.mvfrm
Library\Bee\artifacts\mvdfrm\UnityEngine.GIModule.dll_052B1372D7D66C2E.mvfrm
Library\Bee\artifacts\mvdfrm\UnityEngine.GridModule.dll_83014D81CAC3EEE2.mvfrm
Library\Bee\artifacts\mvdfrm\UnityEngine.HotReloadModule.dll_04AD3F02F5973E2E.mvfrm
Library\Bee\artifacts\mvdfrm\UnityEngine.ImageConversionModule.dll_9875ECBDC71AD179.mvfrm
Library\Bee\artifacts\mvdfrm\UnityEngine.IMGUIModule.dll_522DC436ABF48C7F.mvfrm
Library\Bee\artifacts\mvdfrm\UnityEngine.InputLegacyModule.dll_91531B33ADBA3D4B.mvfrm
Library\Bee\artifacts\mvdfrm\UnityEngine.InputModule.dll_8043EC805BFB1D42.mvfrm
Library\Bee\artifacts\mvdfrm\UnityEngine.JSONSerializeModule.dll_A0372D5D042C7610.mvfrm
Library\Bee\artifacts\mvdfrm\UnityEngine.LocalizationModule.dll_2015FE67B9E94235.mvfrm
Library\Bee\artifacts\mvdfrm\UnityEngine.ParticleSystemModule.dll_09CC88BE9580B8F1.mvfrm
Library\Bee\artifacts\mvdfrm\UnityEngine.PerformanceReportingModule.dll_F74729113EF498AA.mvfrm
Library\Bee\artifacts\mvdfrm\UnityEngine.Physics2DModule.dll_D00A70EDBB611A41.mvfrm
Library\Bee\artifacts\mvdfrm\UnityEngine.PhysicsModule.dll_67E9834C5353032F.mvfrm
Library\Bee\artifacts\mvdfrm\UnityEngine.ProfilerModule.dll_AA36F14ACBA690D5.mvfrm
Library\Bee\artifacts\mvdfrm\UnityEngine.PropertiesModule.dll_EC47BA31AC00A8FF.mvfrm
Library\Bee\artifacts\mvdfrm\UnityEngine.RuntimeInitializeOnLoadManagerInitializerModule.dll_1D0F0F81A9688D0A.mvfrm
Library\Bee\artifacts\mvdfrm\UnityEngine.ScreenCaptureModule.dll_BA1EDAE21898A272.mvfrm
Library\Bee\artifacts\mvdfrm\UnityEngine.SharedInternalsModule.dll_1C872B933E48CCC9.mvfrm
Library\Bee\artifacts\mvdfrm\UnityEngine.SpriteMaskModule.dll_A838ED835A84DA3D.mvfrm
Library\Bee\artifacts\mvdfrm\UnityEngine.SpriteShapeModule.dll_196F2D6FCB6ABF64.mvfrm
Library\Bee\artifacts\mvdfrm\UnityEngine.StreamingModule.dll_37F96E4D69EBD9EA.mvfrm
Library\Bee\artifacts\mvdfrm\UnityEngine.SubstanceModule.dll_14A48296B53ED7F8.mvfrm
Library\Bee\artifacts\mvdfrm\UnityEngine.SubsystemsModule.dll_12E653E528CCC250.mvfrm
Library\Bee\artifacts\mvdfrm\UnityEngine.TerrainModule.dll_822FFEBB29114C1D.mvfrm
Library\Bee\artifacts\mvdfrm\UnityEngine.TerrainPhysicsModule.dll_0A473191AEC3B37E.mvfrm
Library\Bee\artifacts\mvdfrm\UnityEngine.TextCoreFontEngineModule.dll_A29428EA4FCB8609.mvfrm
Library\Bee\artifacts\mvdfrm\UnityEngine.TextCoreTextEngineModule.dll_EA7C5F5BDF4F3F27.mvfrm
Library\Bee\artifacts\mvdfrm\UnityEngine.TextRenderingModule.dll_E35E4CECCFD02267.mvfrm
Library\Bee\artifacts\mvdfrm\UnityEngine.TilemapModule.dll_212C663C40CE2D26.mvfrm
Library\Bee\artifacts\mvdfrm\UnityEngine.TLSModule.dll_ECD841A23F4E7043.mvfrm
Library\Bee\artifacts\mvdfrm\UnityEngine.UIElementsModule.dll_1724B54D2BF8FE47.mvfrm
Library\Bee\artifacts\mvdfrm\UnityEngine.UIModule.dll_68626892986E89C0.mvfrm
Library\Bee\artifacts\mvdfrm\UnityEngine.UmbraModule.dll_94A2D0E872E9A411.mvfrm
Library\Bee\artifacts\mvdfrm\UnityEngine.UnityAnalyticsCommonModule.dll_9285E65558DD3708.mvfrm
Library\Bee\artifacts\mvdfrm\UnityEngine.UnityAnalyticsModule.dll_296BF98841A80AED.mvfrm
Library\Bee\artifacts\mvdfrm\UnityEngine.UnityConnectModule.dll_4F8C430E6B6D7D21.mvfrm
Library\Bee\artifacts\mvdfrm\UnityEngine.UnityCurlModule.dll_B681222E8A781499.mvfrm
Library\Bee\artifacts\mvdfrm\UnityEngine.UnityTestProtocolModule.dll_89C4C20F24B57587.mvfrm
Library\Bee\artifacts\mvdfrm\UnityEngine.UnityWebRequestAssetBundleModule.dll_32C0B769540F177E.mvfrm
Library\Bee\artifacts\mvdfrm\UnityEngine.UnityWebRequestAudioModule.dll_6F437CEFC55F6342.mvfrm
Library\Bee\artifacts\mvdfrm\UnityEngine.UnityWebRequestModule.dll_AA14F467D20F6BF8.mvfrm
Library\Bee\artifacts\mvdfrm\UnityEngine.UnityWebRequestTextureModule.dll_4E1C0F6FF5EDD557.mvfrm
Library\Bee\artifacts\mvdfrm\UnityEngine.UnityWebRequestWWWModule.dll_B53EA4B7CF0EFB93.mvfrm
Library\Bee\artifacts\mvdfrm\UnityEngine.VehiclesModule.dll_EFB3B193AC76D963.mvfrm
Library\Bee\artifacts\mvdfrm\UnityEngine.VFXModule.dll_6DB6DA1115BBD9B0.mvfrm
Library\Bee\artifacts\mvdfrm\UnityEngine.VideoModule.dll_3ED7A93AA8551443.mvfrm
Library\Bee\artifacts\mvdfrm\UnityEngine.VirtualTexturingModule.dll_BDDEAD5241925BC9.mvfrm
Library\Bee\artifacts\mvdfrm\UnityEngine.VRModule.dll_BB348F183A290F38.mvfrm
Library\Bee\artifacts\mvdfrm\UnityEngine.WindModule.dll_1BDF0CBC43A5D754.mvfrm
Library\Bee\artifacts\mvdfrm\UnityEngine.XRModule.dll_EDF3521CC3635C96.mvfrm